---
http_interactions:
- request:
    method: get
    uri: https://api.uat.nexosisdev.com/v1/sessions?dataSetName=&eventName=&page=0&pageSize=20&requestedAfterDate=&requestedBeforeDate=&type=
    body:
      encoding: US-ASCII
      string: ''
    headers:
      Api-Key:
      - api-key
      Content-Type:
      - application/json
      User-Agent:
      - Nexosis-Ruby-API-Client/1.2
  response:
    status:
      code: 200
      message: OK
    headers:
      Transfer-Encoding:
      - chunked
      Content-Type:
      - application/json; charset=utf-8
      Nexosis-Account-Datasetcount-Allotted:
      - '10000'
      Nexosis-Account-Datasetcount-Current:
      - '25'
      Nexosis-Account-Predictioncount-Allotted:
      - '10000000'
      Nexosis-Account-Predictioncount-Current:
      - '127'
      Nexosis-Account-Sessioncount-Allotted:
      - '100000'
      Nexosis-Account-Sessioncount-Current:
      - '8'
      Nexosis-Account-Balance:
      - 0.00 USD
      Nexosis-Request-Cost:
      - 0.00 USD
      Date:
      - Tue, 09 Jan 2018 16:01:44 GMT
    body:
      encoding: UTF-8
      string: '{"items":[{"columns":{"B":{"dataType":"numeric","role":"feature","imputation":"zeroes","aggregation":"sum"},"G":{"dataType":"numeric","role":"feature","imputation":"zeroes","aggregation":"sum"},"R":{"dataType":"numeric","role":"feature","imputation":"zeroes","aggregation":"sum"},"Color":{"dataType":"string","role":"target","imputation":"mode","aggregation":"mode"}},"sessionId":"016032e6-3e63-4cb4-a67d-c0105c420513","type":"model","status":"completed","predictionDomain":"classification","availablePredictionIntervals":[],"modelId":"7f12d046-6b50-4b65-9985-ee6dd1fa8d67","requestedDate":"2017-12-07T21:33:58.234112+00:00","statusHistory":[{"date":"2017-12-07T21:33:58.234112+00:00","status":"requested"},{"date":"2017-12-07T21:33:58.8250912+00:00","status":"started"},{"date":"2017-12-07T21:36:04.7865273+00:00","status":"completed"}],"extraParameters":{"balance":true},"messages":[{"severity":"informational","message":"138
        observations were found in the dataset."}],"dataSourceName":"RGB","dataSetName":"RGB","targetColumn":"color","isEstimate":false,"links":[{"rel":"results","href":"https://api.uat.nexosisdev.com/v1/sessions/016032e6-3e63-4cb4-a67d-c0105c420513/results"},{"rel":"data","href":"https://api.uat.nexosisdev.com/v1/data/RGB"},{"rel":"model","href":"https://api.uat.nexosisdev.com/v1/models/7f12d046-6b50-4b65-9985-ee6dd1fa8d67"},{"rel":"confusionMatrix","href":"https://api.uat.nexosisdev.com/v1/sessions/016032e6-3e63-4cb4-a67d-c0105c420513/results/confusionmatrix"},{"rel":"classScores","href":"https://api.uat.nexosisdev.com/v1/sessions/016032e6-3e63-4cb4-a67d-c0105c420513/results/classScores"}]},{"columns":{"MPG":{"dataType":"numericMeasure","role":"target","imputation":"mean","aggregation":"sum"},"Make":{"dataType":"string","role":"feature","imputation":"mode","aggregation":"mode"},"Name":{"dataType":"string","role":"none","imputation":"mode","aggregation":"mode"},"Origin":{"dataType":"numeric","role":"feature","imputation":"mode","aggregation":"sum"},"Weight":{"dataType":"numericMeasure","role":"feature","imputation":"mean","aggregation":"sum"},"Cylinders":{"dataType":"numericMeasure","role":"feature","imputation":"mean","aggregation":"sum"},"ModelYear":{"dataType":"numericMeasure","role":"feature","imputation":"mode","aggregation":"sum"},"Horsepower":{"dataType":"numericMeasure","role":"feature","imputation":"mean","aggregation":"sum"},"Acceleration":{"dataType":"numericMeasure","role":"feature","imputation":"mean","aggregation":"sum"},"Displacement":{"dataType":"numericMeasure","role":"feature","imputation":"mean","aggregation":"sum"}},"sessionId":"01603749-fe9c-4524-abeb-bcf2522cb330","type":"model","status":"completed","predictionDomain":"regression","availablePredictionIntervals":["0.5"],"modelId":"423a24e5-e2f5-40cb-bbc6-13cd1f0634d9","requestedDate":"2017-12-08T18:01:24.37754+00:00","statusHistory":[{"date":"2017-12-08T18:01:24.37754+00:00","status":"requested"},{"date":"2017-12-08T18:01:24.1515007+00:00","status":"started"},{"date":"2017-12-08T18:02:29.3933692+00:00","status":"completed"}],"extraParameters":{},"messages":[{"severity":"informational","message":"1592
        observations were found in the dataset."}],"dataSourceName":"Mpg","dataSetName":"Mpg","targetColumn":"MPG","isEstimate":false,"links":[{"rel":"results","href":"https://api.uat.nexosisdev.com/v1/sessions/01603749-fe9c-4524-abeb-bcf2522cb330/results"},{"rel":"data","href":"https://api.uat.nexosisdev.com/v1/data/Mpg"},{"rel":"model","href":"https://api.uat.nexosisdev.com/v1/models/423a24e5-e2f5-40cb-bbc6-13cd1f0634d9"}]},{"columns":{"ny":{"dataType":"logical","role":"feature","imputation":"mode","aggregation":"mode"},"cali":{"dataType":"logical","role":"feature","imputation":"mode","aggregation":"mode"},"Profit":{"dataType":"numeric","role":"target","imputation":"zeroes","aggregation":"sum"},"florida":{"dataType":"logical","role":"feature","imputation":"mode","aggregation":"mode"},"R.D.Spend":{"dataType":"numeric","role":"feature","imputation":"zeroes","aggregation":"sum"},"Administration":{"dataType":"numeric","role":"feature","imputation":"zeroes","aggregation":"sum"},"Marketing.Spend":{"dataType":"numeric","role":"feature","imputation":"zeroes","aggregation":"sum"}},"sessionId":"01605700-8d2b-43ab-b279-13d36b9d19e9","type":"model","status":"completed","predictionDomain":"regression","availablePredictionIntervals":["0.5"],"modelId":"160bbaa3-5617-4a9d-ac21-ec883888c951","requestedDate":"2017-12-14T21:49:02.12144+00:00","statusHistory":[{"date":"2017-12-14T21:49:02.12144+00:00","status":"requested"},{"date":"2017-12-14T21:49:01.9563974+00:00","status":"started"},{"date":"2017-12-14T21:49:31.3144235+00:00","status":"completed"}],"extraParameters":{},"messages":[{"severity":"informational","message":"200
        observations were found in the dataset."}],"dataSourceName":"50Startups","dataSetName":"50Startups","targetColumn":"profit","isEstimate":false,"links":[{"rel":"results","href":"https://api.uat.nexosisdev.com/v1/sessions/01605700-8d2b-43ab-b279-13d36b9d19e9/results"},{"rel":"data","href":"https://api.uat.nexosisdev.com/v1/data/50Startups"},{"rel":"model","href":"https://api.uat.nexosisdev.com/v1/models/160bbaa3-5617-4a9d-ac21-ec883888c951"}]},{"columns":{"Id":{"dataType":"numeric","role":"none","imputation":"zeroes","aggregation":"sum"},"Score1":{"dataType":"numeric","role":"none","imputation":"zeroes","aggregation":"sum"},"Score2":{"dataType":"numeric","role":"none","imputation":"zeroes","aggregation":"sum"},"AvgScore":{"dataType":"numeric","role":"target","imputation":"zeroes","aggregation":"sum"},"EssaySet":{"dataType":"numeric","role":"feature","imputation":"zeroes","aggregation":"sum"},"EssayText":{"dataType":"text","role":"feature"}},"sessionId":"016098e5-d540-4f0d-a3fb-ae88e6366e8a","type":"model","status":"completed","predictionDomain":"regression","availablePredictionIntervals":["0.5"],"modelId":"804f8c99-c553-488e-a991-fd402bdc625a","requestedDate":"2017-12-27T16:54:47.358142+00:00","statusHistory":[{"date":"2017-12-27T16:54:47.358142+00:00","status":"requested"},{"date":"2017-12-27T16:54:47.1350275+00:00","status":"started"},{"date":"2017-12-27T17:35:30.6001041+00:00","status":"completed"}],"extraParameters":{},"messages":[{"severity":"informational","message":"17206
        observations were found in the dataset."}],"dataSourceName":"shortanswer1","dataSetName":"shortanswer1","targetColumn":"AvgScore","isEstimate":false,"links":[{"rel":"results","href":"https://api.uat.nexosisdev.com/v1/sessions/016098e5-d540-4f0d-a3fb-ae88e6366e8a/results"},{"rel":"data","href":"https://api.uat.nexosisdev.com/v1/data/shortanswer1"},{"rel":"model","href":"https://api.uat.nexosisdev.com/v1/models/804f8c99-c553-488e-a991-fd402bdc625a"}]},{"columns":{"author":{"dataType":"string","role":"none","imputation":"mode","aggregation":"mode"},"content":{"dataType":"text","role":"feature"},"tweet_id":{"dataType":"numeric","role":"none","imputation":"zeroes","aggregation":"sum"},"sentiment":{"dataType":"string","role":"target","imputation":"mode","aggregation":"mode"}},"sessionId":"01609922-679e-4e38-8a42-6bc082674af6","type":"model","status":"completed","predictionDomain":"classification","availablePredictionIntervals":[],"modelId":"0e754ac4-45da-40b5-8313-bec7fd8be296","requestedDate":"2017-12-27T18:00:56.988779+00:00","statusHistory":[{"date":"2017-12-27T18:00:56.988779+00:00","status":"requested"},{"date":"2017-12-27T18:00:56.4659641+00:00","status":"started"},{"date":"2017-12-27T19:00:43.6290868+00:00","status":"completed"}],"extraParameters":{"balance":true},"messages":[{"severity":"informational","message":"39999
        observations were found in the dataset."}],"dataSourceName":"sentiment","dataSetName":"sentiment","targetColumn":"sentiment","isEstimate":false,"links":[{"rel":"results","href":"https://api.uat.nexosisdev.com/v1/sessions/01609922-679e-4e38-8a42-6bc082674af6/results"},{"rel":"data","href":"https://api.uat.nexosisdev.com/v1/data/sentiment"},{"rel":"model","href":"https://api.uat.nexosisdev.com/v1/models/0e754ac4-45da-40b5-8313-bec7fd8be296"},{"rel":"confusionMatrix","href":"https://api.uat.nexosisdev.com/v1/sessions/01609922-679e-4e38-8a42-6bc082674af6/results/confusionmatrix"},{"rel":"classScores","href":"https://api.uat.nexosisdev.com/v1/sessions/01609922-679e-4e38-8a42-6bc082674af6/results/classScores"}]},{"columns":{"B":{"dataType":"numeric","role":"feature","imputation":"zeroes","aggregation":"sum"},"G":{"dataType":"numeric","role":"feature","imputation":"zeroes","aggregation":"sum"},"R":{"dataType":"numeric","role":"feature","imputation":"zeroes","aggregation":"sum"},"Color":{"dataType":"string","role":"target","imputation":"mode","aggregation":"mode"}},"sessionId":"0160bdf7-cd8f-458f-9b46-6413ff6973bc","type":"model","status":"completed","predictionDomain":"classification","availablePredictionIntervals":[],"modelId":"82291eff-80c5-4c58-bf46-961266d00115","requestedDate":"2018-01-03T21:40:22.030028+00:00","statusHistory":[{"date":"2018-01-03T21:40:22.030028+00:00","status":"requested"},{"date":"2018-01-03T21:40:22.4524879+00:00","status":"started"},{"date":"2018-01-03T21:41:23.3830368+00:00","status":"completed"}],"extraParameters":{"balance":true},"messages":[{"severity":"informational","message":"138
        observations were found in the dataset."}],"dataSourceName":"RGB","dataSetName":"RGB","targetColumn":"color","isEstimate":false,"links":[{"rel":"results","href":"https://api.uat.nexosisdev.com/v1/sessions/0160bdf7-cd8f-458f-9b46-6413ff6973bc/results"},{"rel":"data","href":"https://api.uat.nexosisdev.com/v1/data/RGB"},{"rel":"model","href":"https://api.uat.nexosisdev.com/v1/models/82291eff-80c5-4c58-bf46-961266d00115"},{"rel":"confusionMatrix","href":"https://api.uat.nexosisdev.com/v1/sessions/0160bdf7-cd8f-458f-9b46-6413ff6973bc/results/confusionmatrix"},{"rel":"classScores","href":"https://api.uat.nexosisdev.com/v1/sessions/0160bdf7-cd8f-458f-9b46-6413ff6973bc/results/classScores"}]},{"columns":{"iris":{"dataType":"string","role":"target","imputation":"mode","aggregation":"mode"},"petal_len":{"dataType":"numeric","role":"feature","imputation":"zeroes","aggregation":"sum"},"sepal_len":{"dataType":"numeric","role":"feature","imputation":"zeroes","aggregation":"sum"},"petal_width":{"dataType":"numeric","role":"feature","imputation":"zeroes","aggregation":"sum"},"sepal_width":{"dataType":"numeric","role":"feature","imputation":"zeroes","aggregation":"sum"}},"sessionId":"0160c147-7bb2-4a04-88d0-f6a1bdb36e18","type":"model","status":"completed","predictionDomain":"classification","availablePredictionIntervals":[],"modelId":"8f807970-6d89-44b7-99eb-535b069aba8f","requestedDate":"2018-01-04T13:06:15.600143+00:00","statusHistory":[{"date":"2018-01-04T13:06:15.600143+00:00","status":"requested"},{"date":"2018-01-04T13:06:15.6274539+00:00","status":"started"},{"date":"2018-01-04T13:07:03.1249821+00:00","status":"completed"}],"extraParameters":{"balance":true},"messages":[{"severity":"informational","message":"149
        observations were found in the dataset."}],"dataSourceName":"Iris","dataSetName":"Iris","targetColumn":"iris","isEstimate":false,"links":[{"rel":"results","href":"https://api.uat.nexosisdev.com/v1/sessions/0160c147-7bb2-4a04-88d0-f6a1bdb36e18/results"},{"rel":"data","href":"https://api.uat.nexosisdev.com/v1/data/Iris"},{"rel":"model","href":"https://api.uat.nexosisdev.com/v1/models/8f807970-6d89-44b7-99eb-535b069aba8f"},{"rel":"confusionMatrix","href":"https://api.uat.nexosisdev.com/v1/sessions/0160c147-7bb2-4a04-88d0-f6a1bdb36e18/results/confusionmatrix"},{"rel":"classScores","href":"https://api.uat.nexosisdev.com/v1/sessions/0160c147-7bb2-4a04-88d0-f6a1bdb36e18/results/classScores"}]},{"columns":{"A":{"dataType":"numeric","role":"feature","imputation":"mode","aggregation":"mode"},"B":{"dataType":"numeric","role":"feature","imputation":"mode","aggregation":"mode"},"Result":{"dataType":"numeric","role":"target","imputation":"mode","aggregation":"mode"}},"sessionId":"0160d64c-40c2-4f18-9f72-29c1d6d7ea84","type":"model","status":"completed","predictionDomain":"classification","availablePredictionIntervals":[],"modelId":"18ef2e16-7508-4574-9179-a6446604e031","requestedDate":"2018-01-08T15:03:29.728577+00:00","statusHistory":[{"date":"2018-01-08T15:03:29.728577+00:00","status":"requested"},{"date":"2018-01-08T15:03:30.7906383+00:00","status":"started"},{"date":"2018-01-08T15:42:06.7250968+00:00","status":"completed"}],"extraParameters":{"balance":true},"messages":[{"severity":"informational","message":"40
        observations were found in the dataset."}],"dataSourceName":"Binary","dataSetName":"Binary","targetColumn":"Result","isEstimate":false,"links":[{"rel":"results","href":"https://api.uat.nexosisdev.com/v1/sessions/0160d64c-40c2-4f18-9f72-29c1d6d7ea84/results"},{"rel":"data","href":"https://api.uat.nexosisdev.com/v1/data/Binary"},{"rel":"model","href":"https://api.uat.nexosisdev.com/v1/models/18ef2e16-7508-4574-9179-a6446604e031"},{"rel":"confusionMatrix","href":"https://api.uat.nexosisdev.com/v1/sessions/0160d64c-40c2-4f18-9f72-29c1d6d7ea84/results/confusionmatrix"},{"rel":"classScores","href":"https://api.uat.nexosisdev.com/v1/sessions/0160d64c-40c2-4f18-9f72-29c1d6d7ea84/results/classScores"}]},{"columns":{"sales":{"dataType":"numeric","role":"feature","imputation":"zeroes","aggregation":"sum"},"timeStamp":{"dataType":"date","role":"timestamp"},"transactions":{"dataType":"numeric","role":"target","imputation":"zeroes","aggregation":"sum"}},"sessionId":"0160d654-877a-46ad-8783-caf2a02192cd","type":"forecast","status":"completed","predictionDomain":"forecast","availablePredictionIntervals":["0.01","0.05","0.2","0.5","0.8","0.95","0.99"],"startDate":"2017-01-22T00:00:00+00:00","endDate":"2017-02-22T00:00:00+00:00","resultInterval":"day","requestedDate":"2018-01-08T15:12:32.120572+00:00","statusHistory":[{"date":"2018-01-08T15:12:32.120572+00:00","status":"requested"},{"date":"2018-01-08T15:12:32.8015811+00:00","status":"started"},{"date":"2018-01-08T15:24:20.6763123+00:00","status":"completed"}],"extraParameters":{},"messages":[{"severity":"informational","message":"1476
        daily observations were found in the dataset before 2017-02-22T23:59:59.9999999Z."}],"dataSourceName":"widget-sales","dataSetName":"widget-sales","targetColumn":"transactions","isEstimate":false,"links":[{"rel":"results","href":"https://api.uat.nexosisdev.com/v1/sessions/0160d654-877a-46ad-8783-caf2a02192cd/results"},{"rel":"data","href":"https://api.uat.nexosisdev.com/v1/data/widget-sales"}]},{"columns":{"key":{"dataType":"numeric","role":"key","imputation":"zeroes","aggregation":"sum"},"target":{"dataType":"numeric","role":"target","imputation":"zeroes","aggregation":"sum"},"feature":{"dataType":"numeric","role":"feature","imputation":"zeroes","aggregation":"sum"}},"sessionId":"0160db8f-6238-40ee-bf23-32b2230384db","type":"model","status":"completed","predictionDomain":"anomalies","availablePredictionIntervals":[],"modelId":"db690dde-808e-4b77-8d86-a286d3debab2","requestedDate":"2018-01-09T15:34:55.285888+00:00","statusHistory":[{"date":"2018-01-09T15:34:55.285888+00:00","status":"requested"},{"date":"2018-01-09T15:34:55.3297084+00:00","status":"started"},{"date":"2018-01-09T15:35:10.4416988+00:00","status":"completed"}],"extraParameters":{"containsAnomalies":true},"messages":[{"severity":"informational","message":"500
        observations were found in the dataset."}],"dataSourceName":"TestRuby_NTS","dataSetName":"TestRuby_NTS","targetColumn":"target","isEstimate":false,"links":[{"rel":"results","href":"https://api.uat.nexosisdev.com/v1/sessions/0160db8f-6238-40ee-bf23-32b2230384db/results"},{"rel":"data","href":"https://api.uat.nexosisdev.com/v1/data/TestRuby_NTS"},{"rel":"model","href":"https://api.uat.nexosisdev.com/v1/models/db690dde-808e-4b77-8d86-a286d3debab2"},{"rel":"anomalyScores","href":"https://api.uat.nexosisdev.com/v1/sessions/0160db8f-6238-40ee-bf23-32b2230384db/results/anomalyScores"}]}],"pageNumber":0,"totalPages":1,"pageSize":20,"totalCount":10,"links":[{"rel":"self","href":"https://api.uat.nexosisdev.com/v1/sessions?dataSetName=&eventName=&requestedAfterDate=&requestedBeforeDate=&type=&page=0&pageSize=20"},{"rel":"first","href":"https://api.uat.nexosisdev.com/v1/sessions?dataSetName=&eventName=&requestedAfterDate=&requestedBeforeDate=&type=&page=0&pageSize=20&page=0"},{"rel":"last","href":"https://api.uat.nexosisdev.com/v1/sessions?dataSetName=&eventName=&requestedAfterDate=&requestedBeforeDate=&type=&page=0&pageSize=20&page=0"}]}'
    http_version: 
  recorded_at: Tue, 09 Jan 2018 16:01:43 GMT
- request:
    method: get
    uri: https://api.uat.nexosisdev.com/v1/sessions/0160db8f-6238-40ee-bf23-32b2230384db/results/anomalyScores?page=0&pageSize=50
    body:
      encoding: US-ASCII
      string: ''
    headers:
      Api-Key:
      - api-key
      Content-Type:
      - application/json
      User-Agent:
      - Nexosis-Ruby-API-Client/1.2
  response:
    status:
      code: 200
      message: OK
    headers:
      Transfer-Encoding:
      - chunked
      Content-Type:
      - application/json; charset=utf-8
      Nexosis-Session-Status:
      - Completed
      Nexosis-Account-Datasetcount-Allotted:
      - '10000'
      Nexosis-Account-Datasetcount-Current:
      - '25'
      Nexosis-Account-Predictioncount-Allotted:
      - '10000000'
      Nexosis-Account-Predictioncount-Current:
      - '127'
      Nexosis-Account-Sessioncount-Allotted:
      - '100000'
      Nexosis-Account-Sessioncount-Current:
      - '8'
      Nexosis-Account-Balance:
      - 0.00 USD
      Nexosis-Request-Cost:
      - 0.00 USD
      Date:
      - Tue, 09 Jan 2018 16:01:44 GMT
    body:
      encoding: UTF-8
      string: '{"metrics":{"percentAnomalies":0.1},"data":[{"key":"473","target":"0.00014447183033902","feature":"473","target:actual":"473"},{"key":"472","target":"0.00385127268449333","feature":"472","target:actual":"472"},{"key":"471","target":"0.00717554246434867","feature":"471","target:actual":"471"},{"key":"470","target":"0.0117655102345052","feature":"470","target:actual":"470"},{"key":"47","target":"0.0123847860157383","feature":"47","target:actual":"47"},{"key":"469","target":"0.0123614070193773","feature":"469","target:actual":"469"},{"key":"468","target":"0.0128685353255465","feature":"468","target:actual":"468"},{"key":"467","target":"0.0130583924479498","feature":"467","target:actual":"467"},{"key":"466","target":"0.0132347503299764","feature":"466","target:actual":"466"},{"key":"465","target":"0.0115131648394229","feature":"465","target:actual":"465"},{"key":"464","target":"0.0159457035770535","feature":"464","target:actual":"464"},{"key":"463","target":"0.0138370241691618","feature":"463","target:actual":"463"},{"key":"462","target":"0.0176133334447092","feature":"462","target:actual":"462"},{"key":"461","target":"0.0217512517808478","feature":"461","target:actual":"461"},{"key":"460","target":"0.0197862002352644","feature":"460","target:actual":"460"},{"key":"46","target":"0.0126765576376862","feature":"46","target:actual":"46"},{"key":"459","target":"0.0191704776700294","feature":"459","target:actual":"459"},{"key":"458","target":"0.0187165493527724","feature":"458","target:actual":"458"},{"key":"457","target":"0.0200624222715364","feature":"457","target:actual":"457"},{"key":"456","target":"0.022208344874396","feature":"456","target:actual":"456"},{"key":"455","target":"0.0248741514660343","feature":"455","target:actual":"455"},{"key":"454","target":"0.0248167311384387","feature":"454","target:actual":"454"},{"key":"453","target":"0.0242241826322535","feature":"453","target:actual":"453"},{"key":"452","target":"0.0265954260372484","feature":"452","target:actual":"452"},{"key":"451","target":"0.0239670238687352","feature":"451","target:actual":"451"},{"key":"450","target":"0.0238064663110203","feature":"450","target:actual":"450"},{"key":"45","target":"0.0119877582202565","feature":"45","target:actual":"45"},{"key":"449","target":"0.0239067387172621","feature":"449","target:actual":"449"},{"key":"448","target":"0.0244823610761364","feature":"448","target:actual":"448"},{"key":"447","target":"0.0191003206397904","feature":"447","target:actual":"447"},{"key":"446","target":"0.0207271487952526","feature":"446","target:actual":"446"},{"key":"445","target":"0.0161367278854811","feature":"445","target:actual":"445"},{"key":"444","target":"0.0101900984308504","feature":"444","target:actual":"444"},{"key":"443","target":"0.00940353013780545","feature":"443","target:actual":"443"},{"key":"442","target":"0.0080563120408785","feature":"442","target:actual":"442"},{"key":"441","target":"0.00673284414272887","feature":"441","target:actual":"441"},{"key":"440","target":"0.00924135097599196","feature":"440","target:actual":"440"},{"key":"44","target":"0.0147113451934922","feature":"44","target:actual":"44"},{"key":"439","target":"0.00905727329178426","feature":"439","target:actual":"439"},{"key":"438","target":"0.0149866864927488","feature":"438","target:actual":"438"},{"key":"437","target":"0.0136237175296285","feature":"437","target:actual":"437"},{"key":"436","target":"0.0148644957888246","feature":"436","target:actual":"436"},{"key":"435","target":"0.015008295358944","feature":"435","target:actual":"435"},{"key":"434","target":"0.0131836527841095","feature":"434","target:actual":"434"},{"key":"433","target":"0.014670840392291","feature":"433","target:actual":"433"},{"key":"432","target":"0.0118875736805596","feature":"432","target:actual":"432"},{"key":"431","target":"0.00998529866142891","feature":"431","target:actual":"431"},{"key":"430","target":"0.00969164805643438","feature":"430","target:actual":"430"},{"key":"43","target":"0.0142761556010904","feature":"43","target:actual":"43"},{"key":"429","target":"0.00998492226907585","feature":"429","target:actual":"429"}],"pageNumber":0,"totalPages":10,"pageSize":50,"totalCount":500,"sessionId":"0160db8f-6238-40ee-bf23-32b2230384db","type":"model","status":"completed","predictionDomain":"anomalies","availablePredictionIntervals":[],"modelId":"db690dde-808e-4b77-8d86-a286d3debab2","requestedDate":"2018-01-09T15:34:55.285888+00:00","statusHistory":[{"date":"2018-01-09T15:34:55.285888+00:00","status":"requested"},{"date":"2018-01-09T15:34:55.3297084+00:00","status":"started"},{"date":"2018-01-09T15:35:10.4416988+00:00","status":"completed"}],"extraParameters":{"containsAnomalies":true},"messages":[{"severity":"informational","message":"500
        observations were found in the dataset."}],"dataSourceName":"TestRuby_NTS","dataSetName":"TestRuby_NTS","targetColumn":"target","isEstimate":false,"links":[{"rel":"self","href":"https://api.uat.nexosisdev.com/v1/sessions/0160db8f-6238-40ee-bf23-32b2230384db/results/anomalyScores?page=0&pageSize=50"},{"rel":"model","href":"https://api.uat.nexosisdev.com/v1/models/db690dde-808e-4b77-8d86-a286d3debab2"},{"rel":"anomalyScores","href":"https://api.uat.nexosisdev.com/v1/sessions/0160db8f-6238-40ee-bf23-32b2230384db/results/anomalyScores"},{"rel":"contest","href":"https://api.uat.nexosisdev.com/v1/sessions/0160db8f-6238-40ee-bf23-32b2230384db/contest"},{"rel":"first","href":"https://api.uat.nexosisdev.com/v1/sessions/0160db8f-6238-40ee-bf23-32b2230384db/results/anomalyScores?page=0&pageSize=50&page=0"},{"rel":"next","href":"https://api.uat.nexosisdev.com/v1/sessions/0160db8f-6238-40ee-bf23-32b2230384db/results/anomalyScores?page=0&pageSize=50&page=1"},{"rel":"last","href":"https://api.uat.nexosisdev.com/v1/sessions/0160db8f-6238-40ee-bf23-32b2230384db/results/anomalyScores?page=0&pageSize=50&page=9"}]}'
    http_version: 
  recorded_at: Tue, 09 Jan 2018 16:01:43 GMT
recorded_with: VCR 3.0.3
