---
http_interactions:
- request:
    method: get
    uri: https://api.uat.nexosisdev.com/v1/sessions?page=0&pageSize=10
    body:
      encoding: US-ASCII
      string: ''
    headers:
      Api-Key:
      - api-key
      Content-Type:
      - application/json
      User-Agent:
      - Nexosis-Ruby-API-Client/2.1
  response:
    status:
      code: 200
      message: OK
    headers:
      Transfer-Encoding:
      - chunked
      Content-Type:
      - application/json; charset=utf-8
      Nexosis-Account-Datasetcount-Allotted:
      - '10000'
      Nexosis-Account-Datasetcount-Current:
      - '41'
      Nexosis-Account-Predictioncount-Allotted:
      - '10000000'
      Nexosis-Account-Predictioncount-Current:
      - '14'
      Nexosis-Account-Sessioncount-Allotted:
      - '100000'
      Nexosis-Account-Sessioncount-Current:
      - '10'
      Nexosis-Account-Balance:
      - 0.00 USD
      Nexosis-Request-Cost:
      - 0.00 USD
      Date:
      - Fri, 06 Apr 2018 13:22:46 GMT
    body:
      encoding: UTF-8
      string: '{"items":[{"columns":{"Age":{"dataType":"numeric","role":"feature","imputation":"mean","aggregation":"mean"},"Sex":{"dataType":"string","role":"feature","imputation":"mode","aggregation":"mode"},"Fare":{"dataType":"numeric","role":"feature","imputation":"mean","aggregation":"mean"},"Parch":{"dataType":"string","role":"feature","imputation":"mode","aggregation":"mean"},"SibSp":{"dataType":"numeric","role":"feature","imputation":"mean","aggregation":"mean"},"Pclass":{"dataType":"string","role":"feature","imputation":"mode","aggregation":"mean"},"Embarked":{"dataType":"string","role":"feature","imputation":"mode","aggregation":"mode"},"Survived":{"dataType":"string","role":"target","imputation":"mode","aggregation":"mode"}},"sessionId":"016291d3-9b5c-4bbe-905a-014e6d69c680","type":"model","status":"completed","predictionDomain":"classification","supportsFeatureImportance":true,"availablePredictionIntervals":[],"modelId":"c4d2ba94-63e2-4109-86d8-884e4de6ce1f","requestedDate":"2018-04-04T18:03:06.941098+00:00","statusHistory":[{"date":"2018-04-04T18:03:06.941098+00:00","status":"requested"},{"date":"2018-04-04T18:03:35.5352427+00:00","status":"started"},{"date":"2018-04-04T19:17:10.07077+00:00","status":"completed"}],"extraParameters":{"balance":true},"messages":[{"severity":"warning","message":"You
        specified aggregation ''mean'' for column ''Parch'', which may have unintended
        consequences since the column contains string values"},{"severity":"warning","message":"You
        specified aggregation ''mean'' for column ''Pclass'', which may have unintended
        consequences since the column contains string values"},{"severity":"informational","message":"1781
        observations were found in the dataset."}],"name":"Classification on titanic","dataSourceName":"titanic","dataSetName":"titanic","targetColumn":"Survived","algorithm":{"name":"XGBoost
        L1","description":"eXtreme Gradient Boosting with Lasso regularization","key":""},"isEstimate":false,"links":[{"rel":"self","href":"https://api.uat.nexosisdev.com/v1/sessions/016291d3-9b5c-4bbe-905a-014e6d69c680"}]},{"columns":{"iris":{"dataType":"string","role":"target","imputation":"mode","aggregation":"mode"},"petal_len":{"dataType":"numericMeasure","role":"feature","imputation":"mean","aggregation":"mean"},"sepal_len":{"dataType":"numericMeasure","role":"feature","imputation":"mean","aggregation":"mean"},"petal_width":{"dataType":"numericMeasure","role":"feature","imputation":"mean","aggregation":"mean"},"sepal_width":{"dataType":"numericMeasure","role":"feature","imputation":"mean","aggregation":"mean"}},"sessionId":"016291b7-d8e0-40be-818d-09d8cea3c4d1","type":"model","status":"completed","predictionDomain":"classification","supportsFeatureImportance":true,"availablePredictionIntervals":[],"modelId":"4d9fdf0d-6f98-4317-b85f-a8548d38ee89","requestedDate":"2018-04-04T17:32:47.681627+00:00","statusHistory":[{"date":"2018-04-04T17:32:47.681627+00:00","status":"requested"},{"date":"2018-04-04T17:32:47.9512586+00:00","status":"started"},{"date":"2018-04-04T17:41:54.1412943+00:00","status":"completed"}],"extraParameters":{"balance":true},"messages":[{"severity":"informational","message":"2237
        observations were found in the dataset."}],"name":"Classification on Iris","dataSourceName":"Iris","dataSetName":"Iris","targetColumn":"iris","algorithm":{"name":"K-Nearest
        Neighbors","description":"K-Nearest Neighbors","key":""},"isEstimate":false,"links":[{"rel":"self","href":"https://api.uat.nexosisdev.com/v1/sessions/016291b7-d8e0-40be-818d-09d8cea3c4d1"}]},{"columns":{"text":{"dataType":"text","role":"feature"},"section_name":{"dataType":"string","role":"target","imputation":"mode","aggregation":"mode"}},"sessionId":"016290ce-878c-4092-b97c-f642a50d92cd","type":"model","status":"completed","predictionDomain":"classification","supportsFeatureImportance":true,"availablePredictionIntervals":[],"modelId":"ff9e4b38-9ad3-451f-a91a-6c423cb40920","requestedDate":"2018-04-04T13:17:56.968206+00:00","statusHistory":[{"date":"2018-04-04T13:17:56.968206+00:00","status":"requested"},{"date":"2018-04-04T13:18:02.1459395+00:00","status":"started"},{"date":"2018-04-04T14:21:36.9541943+00:00","status":"completed"}],"extraParameters":{"balance":true},"messages":[{"severity":"warning","message":"Target
        class ''job market'' is only specified on 2 record(s) in the dataset. Nexosis
        requires a minimum of 5 records per class for the class to be included in
        a model. Therefore, the model we generate will not consider this class."},{"severity":"warning","message":"Target
        class ''style'' is only specified on 2 record(s) in the dataset. Nexosis requires
        a minimum of 5 records per class for the class to be included in a model.
        Therefore, the model we generate will not consider this class."},{"severity":"warning","message":"Target
        class ''universal'' is only specified on 3 record(s) in the dataset. Nexosis
        requires a minimum of 5 records per class for the class to be included in
        a model. Therefore, the model we generate will not consider this class."},{"severity":"informational","message":"2193
        observations were found in the dataset."}],"name":"Classification on NYT Articles","dataSourceName":"NYT
        Articles","dataSetName":"NYT Articles","targetColumn":"section_name","algorithm":{"name":"Logistic
        Regression with Lasso regularization","description":"Logistic Regression with
        Lasso regularization","key":""},"isEstimate":false,"links":[{"rel":"self","href":"https://api.uat.nexosisdev.com/v1/sessions/016290ce-878c-4092-b97c-f642a50d92cd"}]},{"columns":{"Age":{"dataType":"numeric","role":"feature","imputation":"mean","aggregation":"mean"},"Sex":{"dataType":"string","role":"feature","imputation":"mode","aggregation":"mode"},"Fare":{"dataType":"numeric","role":"feature","imputation":"mean","aggregation":"mean"},"Parch":{"dataType":"string","role":"feature","imputation":"mode","aggregation":"mean"},"SibSp":{"dataType":"numeric","role":"feature","imputation":"mean","aggregation":"mean"},"Pclass":{"dataType":"string","role":"feature","imputation":"mode","aggregation":"mean"},"Embarked":{"dataType":"string","role":"feature","imputation":"mode","aggregation":"mode"},"Survived":{"dataType":"string","role":"target","imputation":"mode","aggregation":"mode"}},"sessionId":"01628c61-1d53-4142-aedf-21911e725824","type":"model","status":"completed","predictionDomain":"classification","supportsFeatureImportance":true,"availablePredictionIntervals":[],"modelId":"77e94a6d-20e1-4bb1-b471-edb5342c14db","requestedDate":"2018-04-03T16:39:57.406239+00:00","statusHistory":[{"date":"2018-04-03T16:39:57.406239+00:00","status":"requested"},{"date":"2018-04-03T16:40:00.9252923+00:00","status":"started"},{"date":"2018-04-03T17:03:32.4959899+00:00","status":"completed"}],"extraParameters":{"balance":true},"messages":[{"severity":"warning","message":"You
        specified aggregation ''mean'' for column ''Parch'', which may have unintended
        consequences since the column contains string values"},{"severity":"warning","message":"You
        specified aggregation ''mean'' for column ''Pclass'', which may have unintended
        consequences since the column contains string values"},{"severity":"informational","message":"1781
        observations were found in the dataset."}],"name":"Classification on titanic","dataSourceName":"titanic","dataSetName":"titanic","targetColumn":"Survived","algorithm":{"name":"XGBoost
        L1","description":"eXtreme Gradient Boosting with Lasso regularization","key":""},"isEstimate":false,"links":[{"rel":"self","href":"https://api.uat.nexosisdev.com/v1/sessions/01628c61-1d53-4142-aedf-21911e725824"}]},{"columns":{"Age":{"dataType":"numeric","role":"feature","imputation":"mean","aggregation":"mean"},"Sex":{"dataType":"string","role":"feature","imputation":"mode","aggregation":"mode"},"Fare":{"dataType":"numeric","role":"feature","imputation":"mean","aggregation":"mean"},"Parch":{"dataType":"string","role":"feature","imputation":"mode","aggregation":"mean"},"SibSp":{"dataType":"numeric","role":"feature","imputation":"mean","aggregation":"mean"},"Pclass":{"dataType":"string","role":"feature","imputation":"mode","aggregation":"mean"},"Embarked":{"dataType":"string","role":"feature","imputation":"mode","aggregation":"mode"},"Survived":{"dataType":"string","role":"target","imputation":"mode","aggregation":"mode"}},"sessionId":"01626e34-6c3d-4ef1-a44f-8884e565b39c","type":"model","status":"completed","predictionDomain":"classification","supportsFeatureImportance":true,"availablePredictionIntervals":[],"modelId":"beb7e64a-5f66-4463-9df3-007f49ad3539","requestedDate":"2018-03-28T20:02:32.079447+00:00","statusHistory":[{"date":"2018-03-28T20:02:32.079447+00:00","status":"requested"},{"date":"2018-03-28T20:02:32.5065039+00:00","status":"started"},{"date":"2018-03-28T20:29:05.7533527+00:00","status":"completed"}],"extraParameters":{"balance":true},"messages":[{"severity":"warning","message":"You
        specified aggregation ''mean'' for column ''Parch'', which may have unintended
        consequences since the column contains string values"},{"severity":"warning","message":"You
        specified aggregation ''mean'' for column ''Pclass'', which may have unintended
        consequences since the column contains string values"},{"severity":"informational","message":"1781
        observations were found in the dataset."}],"name":"Classification on Titanic","dataSourceName":"Titanic","dataSetName":"Titanic","targetColumn":"Survived","algorithm":{"name":"XGBoost
        L1","description":"eXtreme Gradient Boosting with Lasso regularization","key":""},"isEstimate":false,"links":[{"rel":"self","href":"https://api.uat.nexosisdev.com/v1/sessions/01626e34-6c3d-4ef1-a44f-8884e565b39c"}]},{"columns":{"sales":{"dataType":"numericMeasure","role":"target","imputation":"mean","aggregation":"mean"},"timeStamp":{"dataType":"date","role":"timestamp"},"transactions":{"dataType":"numericMeasure","role":"feature","imputation":"mean","aggregation":"mean"}},"sessionId":"01626ca6-56b2-417a-8ea1-6b05bbe389c6","type":"forecast","status":"completed","predictionDomain":"forecast","supportsFeatureImportance":true,"availablePredictionIntervals":["0.2","0.5","0.8"],"startDate":"2016-10-10T00:00:00+00:00","endDate":"2016-11-10T00:00:00+00:00","resultInterval":"day","requestedDate":"2018-03-28T12:47:43.219102+00:00","statusHistory":[{"date":"2018-03-28T12:47:43.219102+00:00","status":"requested"},{"date":"2018-03-28T12:49:02.1659862+00:00","status":"started"},{"date":"2018-03-28T13:04:04.8297598+00:00","status":"completed"}],"extraParameters":{},"messages":[{"severity":"informational","message":"1476
        observations were found in the dataset."},{"severity":"informational","message":"1404
        daily observations were found in the dataset before 2016-11-10T23:59:59.9999999Z."}],"name":"Forecast
        on LocationAFull","dataSourceName":"LocationAFull","dataSetName":"LocationAFull","targetColumn":"sales","algorithm":{"name":"Additive
        Model, Weekly + Annual","description":"Forecasts time series in a way robust
        to outliers, missing data, and dramatic changes to time series, with a weekly
        + annual seasonal component","key":""},"isEstimate":false,"links":[{"rel":"self","href":"https://api.uat.nexosisdev.com/v1/sessions/01626ca6-56b2-417a-8ea1-6b05bbe389c6"}]},{"columns":{"ID":{"dataType":"numericMeasure","role":"none","imputation":"mean","aggregation":"mean"},"rm":{"dataType":"numericMeasure","role":"feature","imputation":"mean","aggregation":"mean"},"zn":{"dataType":"numericMeasure","role":"feature","imputation":"mean","aggregation":"mean"},"age":{"dataType":"numericMeasure","role":"feature","imputation":"mean","aggregation":"mean"},"dis":{"dataType":"numericMeasure","role":"feature","imputation":"mean","aggregation":"mean"},"nox":{"dataType":"numericMeasure","role":"feature","imputation":"mean","aggregation":"mean"},"rad":{"dataType":"string","role":"feature","imputation":"mode","aggregation":"mean"},"tax":{"dataType":"numericMeasure","role":"feature","imputation":"mean","aggregation":"mean"},"chas":{"dataType":"logical","role":"feature","imputation":"mode","aggregation":"mode"},"crim":{"dataType":"numericMeasure","role":"feature","imputation":"mean","aggregation":"mean"},"medv":{"dataType":"numericMeasure","role":"target","imputation":"mean","aggregation":"mean"},"black":{"dataType":"numericMeasure","role":"feature","imputation":"mean","aggregation":"mean"},"indus":{"dataType":"numericMeasure","role":"feature","imputation":"mean","aggregation":"mean"},"lstat":{"dataType":"numericMeasure","role":"feature","imputation":"mean","aggregation":"mean"},"ptratio":{"dataType":"numericMeasure","role":"feature","imputation":"mean","aggregation":"mean"}},"sessionId":"016249dd-9bff-4532-b2ff-b432b9929775","type":"model","status":"completed","predictionDomain":"regression","supportsFeatureImportance":true,"availablePredictionIntervals":["0.5"],"modelId":"60fbefe3-1ac1-4535-9ca5-093439939939","requestedDate":"2018-03-21T18:41:22.763095+00:00","statusHistory":[{"date":"2018-03-21T18:41:22.763095+00:00","status":"requested"},{"date":"2018-03-21T18:41:54.7763003+00:00","status":"started"},{"date":"2018-03-21T19:11:55.5667+00:00","status":"completed"}],"extraParameters":{},"messages":[{"severity":"informational","message":"333
        observations were found in the dataset."}],"name":"Boston Regression","dataSourceName":"Boston
        House Prices","dataSetName":"Boston House Prices","targetColumn":"medv","algorithm":{"name":"XGBoost
        L2","description":"eXtreme Gradient Boosting with ridge regularization","key":""},"isEstimate":false,"links":[{"rel":"self","href":"https://api.uat.nexosisdev.com/v1/sessions/016249dd-9bff-4532-b2ff-b432b9929775"}]},{"columns":{"sales":{"dataType":"numericMeasure","role":"target","imputation":"mean","aggregation":"mean"},"timeStamp":{"dataType":"date","role":"timestamp"},"transactions":{"dataType":"numericMeasure","role":"none","imputation":"mean","aggregation":"mean"}},"sessionId":"016248dc-ca71-4e55-93d2-d05cf1c28153","type":"impact","status":"completed","eventName":"My
        Event","predictionDomain":"impact","supportsFeatureImportance":false,"availablePredictionIntervals":["0.5"],"startDate":"2016-05-01T00:00:00+00:00","endDate":"2016-05-10T00:00:00+00:00","resultInterval":"day","requestedDate":"2018-03-21T14:00:52.042066+00:00","statusHistory":[{"date":"2018-03-21T14:00:52.042066+00:00","status":"requested"},{"date":"2018-03-21T14:00:52.1281314+00:00","status":"started"},{"date":"2018-03-21T14:03:28.0736702+00:00","status":"completed"}],"extraParameters":{"event":"My
        Event"},"messages":[{"severity":"informational","message":"1220 daily observations
        were found in the dataset before 2016-05-10T23:59:59.9999999Z."}],"name":"Impact
        on LocationAFull","dataSourceName":"LocationAFull","dataSetName":"LocationAFull","targetColumn":"sales","algorithm":{"name":"Causal
        Impact Using ARIMA","description":"Uses ARIMA with or without regressors to
        determine the effect of an event on a time series","key":""},"isEstimate":false,"links":[{"rel":"self","href":"https://api.uat.nexosisdev.com/v1/sessions/016248dc-ca71-4e55-93d2-d05cf1c28153"}]},{"columns":{"iris":{"dataType":"string","role":"target","imputation":"mode","aggregation":"mode"},"petal_len":{"dataType":"numericMeasure","role":"feature","imputation":"mean","aggregation":"mean"},"sepal_len":{"dataType":"numericMeasure","role":"feature","imputation":"mean","aggregation":"mean"},"petal_width":{"dataType":"numericMeasure","role":"feature","imputation":"mean","aggregation":"mean"},"sepal_width":{"dataType":"numericMeasure","role":"feature","imputation":"mean","aggregation":"mean"}},"sessionId":"016248d8-6673-4acc-a83b-05883a71766a","type":"model","status":"completed","predictionDomain":"classification","supportsFeatureImportance":true,"availablePredictionIntervals":[],"modelId":"db218c39-8ff8-4d8f-87c3-2ef5562146f5","requestedDate":"2018-03-21T13:56:04.304203+00:00","statusHistory":[{"date":"2018-03-21T13:56:04.304203+00:00","status":"requested"},{"date":"2018-03-21T13:56:04.4551925+00:00","status":"started"},{"date":"2018-03-21T14:03:31.6254688+00:00","status":"completed"}],"extraParameters":{"balance":true},"messages":[{"severity":"informational","message":"2237
        observations were found in the dataset."}],"name":"Classification on Iris","dataSourceName":"Iris","dataSetName":"Iris","targetColumn":"iris","algorithm":{"name":"K-Nearest
        Neighbors","description":"K-Nearest Neighbors","key":""},"isEstimate":false,"links":[{"rel":"self","href":"https://api.uat.nexosisdev.com/v1/sessions/016248d8-6673-4acc-a83b-05883a71766a"}]},{"columns":{"sales":{"dataType":"numericMeasure","role":"target","imputation":"mean","aggregation":"mean"},"timeStamp":{"dataType":"date","role":"timestamp"},"transactions":{"dataType":"numericMeasure","role":"none","imputation":"mean","aggregation":"mean"}},"sessionId":"01623fc4-6acb-49cf-9bc0-c7867eb5b2db","type":"forecast","status":"completed","predictionDomain":"forecast","supportsFeatureImportance":false,"availablePredictionIntervals":["0.5"],"startDate":"2017-01-21T19:00:00+00:00","endDate":"2017-02-21T00:00:00+00:00","resultInterval":"day","requestedDate":"2018-03-19T19:37:39.744666+00:00","statusHistory":[{"date":"2018-03-19T19:37:39.744666+00:00","status":"requested"},{"date":"2018-03-19T19:37:39.6445806+00:00","status":"started"},{"date":"2018-03-19T20:57:26.4048983+00:00","status":"completed"},{"date":"2018-03-19T20:59:44.753076+00:00","status":"completed"},{"date":"2018-03-19T20:59:44.831203+00:00","status":"completed"},{"date":"2018-03-19T20:59:49.7063594+00:00","status":"completed"}],"extraParameters":{},"messages":[{"severity":"informational","message":"1476
        observations were found in the dataset."},{"severity":"informational","message":"1476
        daily observations were found in the dataset before 2017-02-21T18:59:59.9999999Z."}],"name":"Forecast
        on LocationAFull","dataSourceName":"LocationAFull","dataSetName":"LocationAFull","targetColumn":"sales","algorithm":{"name":"Annually-Adjusted
        Seasonal Period","description":"Forecasts based on previous year''s observations,
        trend, seasonality, and holiday effects","key":""},"isEstimate":false,"links":[{"rel":"self","href":"https://api.uat.nexosisdev.com/v1/sessions/01623fc4-6acb-49cf-9bc0-c7867eb5b2db"}]}],"pageNumber":0,"totalPages":5,"pageSize":10,"totalCount":45,"links":[{"rel":"first","href":"https://api.uat.nexosisdev.com/v1/sessions?page=0&pageSize=10&page=0"},{"rel":"next","href":"https://api.uat.nexosisdev.com/v1/sessions?page=0&pageSize=10&page=1"},{"rel":"last","href":"https://api.uat.nexosisdev.com/v1/sessions?page=0&pageSize=10&page=4"},{"rel":"self","href":"https://api.uat.nexosisdev.com/v1/sessions?page=0&pageSize=10"}]}'
    http_version: 
  recorded_at: Fri, 06 Apr 2018 13:22:47 GMT
- request:
    method: get
    uri: https://api.uat.nexosisdev.com/v1/sessions/016291d3-9b5c-4bbe-905a-014e6d69c680/results/confusionmatrix
    body:
      encoding: US-ASCII
      string: ''
    headers:
      Api-Key:
      - api-key
      Content-Type:
      - application/json
      User-Agent:
      - Nexosis-Ruby-API-Client/2.1
  response:
    status:
      code: 200
      message: OK
    headers:
      Transfer-Encoding:
      - chunked
      Content-Type:
      - application/json; charset=utf-8
      Nexosis-Session-Status:
      - Completed
      Nexosis-Account-Datasetcount-Allotted:
      - '10000'
      Nexosis-Account-Datasetcount-Current:
      - '41'
      Nexosis-Account-Predictioncount-Allotted:
      - '10000000'
      Nexosis-Account-Predictioncount-Current:
      - '14'
      Nexosis-Account-Sessioncount-Allotted:
      - '100000'
      Nexosis-Account-Sessioncount-Current:
      - '10'
      Nexosis-Account-Balance:
      - 0.00 USD
      Nexosis-Request-Cost:
      - 0.00 USD
      Date:
      - Fri, 06 Apr 2018 13:22:46 GMT
    body:
      encoding: UTF-8
      string: '{"classes":["0","1"],"confusionMatrix":[[210,9],[16,121]],"pageNumber":0,"totalPages":0,"pageSize":0,"totalCount":0,"sessionId":"016291d3-9b5c-4bbe-905a-014e6d69c680","type":"model","status":"completed","predictionDomain":"classification","supportsFeatureImportance":true,"availablePredictionIntervals":[],"modelId":"c4d2ba94-63e2-4109-86d8-884e4de6ce1f","requestedDate":"2018-04-04T18:03:06.941098+00:00","statusHistory":[{"date":"2018-04-04T18:03:06.941098+00:00","status":"requested"},{"date":"2018-04-04T18:03:35.5352427+00:00","status":"started"},{"date":"2018-04-04T19:17:10.07077+00:00","status":"completed"}],"extraParameters":{"balance":true},"messages":[{"severity":"warning","message":"You
        specified aggregation ''mean'' for column ''Parch'', which may have unintended
        consequences since the column contains string values"},{"severity":"warning","message":"You
        specified aggregation ''mean'' for column ''Pclass'', which may have unintended
        consequences since the column contains string values"},{"severity":"informational","message":"1781
        observations were found in the dataset."}],"name":"Classification on titanic","dataSourceName":"titanic","dataSetName":"titanic","targetColumn":"Survived","algorithm":{"name":"XGBoost
        L1","description":"eXtreme Gradient Boosting with Lasso regularization","key":""},"isEstimate":false,"links":[{"rel":"data","href":"https://api.uat.nexosisdev.com/v1/data/titanic"},{"rel":"self","href":"https://api.uat.nexosisdev.com/v1/sessions/016291d3-9b5c-4bbe-905a-014e6d69c680/results/confusionmatrix"},{"rel":"model","href":"https://api.uat.nexosisdev.com/v1/models/c4d2ba94-63e2-4109-86d8-884e4de6ce1f"},{"rel":"contest","href":"https://api.uat.nexosisdev.com/v1/sessions/016291d3-9b5c-4bbe-905a-014e6d69c680/contest"},{"rel":"confusionMatrix","href":"https://api.uat.nexosisdev.com/v1/sessions/016291d3-9b5c-4bbe-905a-014e6d69c680/results/confusionmatrix"},{"rel":"featureImportance","href":"https://api.uat.nexosisdev.com/v1/sessions/016291d3-9b5c-4bbe-905a-014e6d69c680/results/featureimportance"},{"rel":"classScores","href":"https://api.uat.nexosisdev.com/v1/sessions/016291d3-9b5c-4bbe-905a-014e6d69c680/results/classscores"},{"rel":"vocabularies","href":"https://api.uat.nexosisdev.com/v1/vocabulary?createdFromSession=016291d3-9b5c-4bbe-905a-014e6d69c680"}]}'
    http_version: 
  recorded_at: Fri, 06 Apr 2018 13:22:47 GMT
recorded_with: VCR 3.0.3
