---
http_interactions:
- request:
    method: get
    uri: https://api.uat.nexosisdev.com/v1/sessions?page=0&pageSize=5
    body:
      encoding: US-ASCII
      string: ''
    headers:
      Api-Key:
      - api-key
      Content-Type:
      - application/json
      User-Agent:
      - Nexosis-Ruby-API-Client/2.1
  response:
    status:
      code: 200
      message: OK
    headers:
      Transfer-Encoding:
      - chunked
      Content-Type:
      - application/json; charset=utf-8
      Nexosis-Account-Datasetcount-Allotted:
      - '10000'
      Nexosis-Account-Datasetcount-Current:
      - '41'
      Nexosis-Account-Predictioncount-Allotted:
      - '10000000'
      Nexosis-Account-Predictioncount-Current:
      - '14'
      Nexosis-Account-Sessioncount-Allotted:
      - '100000'
      Nexosis-Account-Sessioncount-Current:
      - '11'
      Nexosis-Account-Balance:
      - 0.00 USD
      Nexosis-Request-Cost:
      - 0.00 USD
      Date:
      - Fri, 06 Apr 2018 14:02:20 GMT
    body:
      encoding: UTF-8
      string: '{"items":[{"columns":{"Age":{"dataType":"numeric","role":"feature","imputation":"mean","aggregation":"mean"},"Sex":{"dataType":"string","role":"feature","imputation":"mode","aggregation":"mode"},"Fare":{"dataType":"numeric","role":"feature","imputation":"mean","aggregation":"mean"},"Parch":{"dataType":"string","role":"feature","imputation":"mode","aggregation":"mean"},"SibSp":{"dataType":"numeric","role":"feature","imputation":"mean","aggregation":"mean"},"Pclass":{"dataType":"string","role":"feature","imputation":"mode","aggregation":"mean"},"Embarked":{"dataType":"string","role":"feature","imputation":"mode","aggregation":"mode"},"Survived":{"dataType":"string","role":"target","imputation":"mode","aggregation":"mode"}},"sessionId":"016291d3-9b5c-4bbe-905a-014e6d69c680","type":"model","status":"completed","predictionDomain":"classification","supportsFeatureImportance":true,"availablePredictionIntervals":[],"modelId":"c4d2ba94-63e2-4109-86d8-884e4de6ce1f","requestedDate":"2018-04-04T18:03:06.941098+00:00","statusHistory":[{"date":"2018-04-04T18:03:06.941098+00:00","status":"requested"},{"date":"2018-04-04T18:03:35.5352427+00:00","status":"started"},{"date":"2018-04-04T19:17:10.07077+00:00","status":"completed"}],"extraParameters":{"balance":true},"messages":[{"severity":"warning","message":"You
        specified aggregation ''mean'' for column ''Parch'', which may have unintended
        consequences since the column contains string values"},{"severity":"warning","message":"You
        specified aggregation ''mean'' for column ''Pclass'', which may have unintended
        consequences since the column contains string values"},{"severity":"informational","message":"1781
        observations were found in the dataset."}],"name":"Classification on titanic","dataSourceName":"titanic","dataSetName":"titanic","targetColumn":"Survived","algorithm":{"name":"XGBoost
        L1","description":"eXtreme Gradient Boosting with Lasso regularization","key":""},"isEstimate":false,"links":[{"rel":"self","href":"https://api.uat.nexosisdev.com/v1/sessions/016291d3-9b5c-4bbe-905a-014e6d69c680"}]},{"columns":{"iris":{"dataType":"string","role":"target","imputation":"mode","aggregation":"mode"},"petal_len":{"dataType":"numericMeasure","role":"feature","imputation":"mean","aggregation":"mean"},"sepal_len":{"dataType":"numericMeasure","role":"feature","imputation":"mean","aggregation":"mean"},"petal_width":{"dataType":"numericMeasure","role":"feature","imputation":"mean","aggregation":"mean"},"sepal_width":{"dataType":"numericMeasure","role":"feature","imputation":"mean","aggregation":"mean"}},"sessionId":"016291b7-d8e0-40be-818d-09d8cea3c4d1","type":"model","status":"completed","predictionDomain":"classification","supportsFeatureImportance":true,"availablePredictionIntervals":[],"modelId":"4d9fdf0d-6f98-4317-b85f-a8548d38ee89","requestedDate":"2018-04-04T17:32:47.681627+00:00","statusHistory":[{"date":"2018-04-04T17:32:47.681627+00:00","status":"requested"},{"date":"2018-04-04T17:32:47.9512586+00:00","status":"started"},{"date":"2018-04-04T17:41:54.1412943+00:00","status":"completed"}],"extraParameters":{"balance":true},"messages":[{"severity":"informational","message":"2237
        observations were found in the dataset."}],"name":"Classification on Iris","dataSourceName":"Iris","dataSetName":"Iris","targetColumn":"iris","algorithm":{"name":"K-Nearest
        Neighbors","description":"K-Nearest Neighbors","key":""},"isEstimate":false,"links":[{"rel":"self","href":"https://api.uat.nexosisdev.com/v1/sessions/016291b7-d8e0-40be-818d-09d8cea3c4d1"}]},{"columns":{"text":{"dataType":"text","role":"feature"},"section_name":{"dataType":"string","role":"target","imputation":"mode","aggregation":"mode"}},"sessionId":"016290ce-878c-4092-b97c-f642a50d92cd","type":"model","status":"completed","predictionDomain":"classification","supportsFeatureImportance":true,"availablePredictionIntervals":[],"modelId":"ff9e4b38-9ad3-451f-a91a-6c423cb40920","requestedDate":"2018-04-04T13:17:56.968206+00:00","statusHistory":[{"date":"2018-04-04T13:17:56.968206+00:00","status":"requested"},{"date":"2018-04-04T13:18:02.1459395+00:00","status":"started"},{"date":"2018-04-04T14:21:36.9541943+00:00","status":"completed"}],"extraParameters":{"balance":true},"messages":[{"severity":"warning","message":"Target
        class ''job market'' is only specified on 2 record(s) in the dataset. Nexosis
        requires a minimum of 5 records per class for the class to be included in
        a model. Therefore, the model we generate will not consider this class."},{"severity":"warning","message":"Target
        class ''style'' is only specified on 2 record(s) in the dataset. Nexosis requires
        a minimum of 5 records per class for the class to be included in a model.
        Therefore, the model we generate will not consider this class."},{"severity":"warning","message":"Target
        class ''universal'' is only specified on 3 record(s) in the dataset. Nexosis
        requires a minimum of 5 records per class for the class to be included in
        a model. Therefore, the model we generate will not consider this class."},{"severity":"informational","message":"2193
        observations were found in the dataset."}],"name":"Classification on NYT Articles","dataSourceName":"NYT
        Articles","dataSetName":"NYT Articles","targetColumn":"section_name","algorithm":{"name":"Logistic
        Regression with Lasso regularization","description":"Logistic Regression with
        Lasso regularization","key":""},"isEstimate":false,"links":[{"rel":"self","href":"https://api.uat.nexosisdev.com/v1/sessions/016290ce-878c-4092-b97c-f642a50d92cd"}]},{"columns":{"Age":{"dataType":"numeric","role":"feature","imputation":"mean","aggregation":"mean"},"Sex":{"dataType":"string","role":"feature","imputation":"mode","aggregation":"mode"},"Fare":{"dataType":"numeric","role":"feature","imputation":"mean","aggregation":"mean"},"Parch":{"dataType":"string","role":"feature","imputation":"mode","aggregation":"mean"},"SibSp":{"dataType":"numeric","role":"feature","imputation":"mean","aggregation":"mean"},"Pclass":{"dataType":"string","role":"feature","imputation":"mode","aggregation":"mean"},"Embarked":{"dataType":"string","role":"feature","imputation":"mode","aggregation":"mode"},"Survived":{"dataType":"string","role":"target","imputation":"mode","aggregation":"mode"}},"sessionId":"01628c61-1d53-4142-aedf-21911e725824","type":"model","status":"completed","predictionDomain":"classification","supportsFeatureImportance":true,"availablePredictionIntervals":[],"modelId":"77e94a6d-20e1-4bb1-b471-edb5342c14db","requestedDate":"2018-04-03T16:39:57.406239+00:00","statusHistory":[{"date":"2018-04-03T16:39:57.406239+00:00","status":"requested"},{"date":"2018-04-03T16:40:00.9252923+00:00","status":"started"},{"date":"2018-04-03T17:03:32.4959899+00:00","status":"completed"}],"extraParameters":{"balance":true},"messages":[{"severity":"warning","message":"You
        specified aggregation ''mean'' for column ''Parch'', which may have unintended
        consequences since the column contains string values"},{"severity":"warning","message":"You
        specified aggregation ''mean'' for column ''Pclass'', which may have unintended
        consequences since the column contains string values"},{"severity":"informational","message":"1781
        observations were found in the dataset."}],"name":"Classification on titanic","dataSourceName":"titanic","dataSetName":"titanic","targetColumn":"Survived","algorithm":{"name":"XGBoost
        L1","description":"eXtreme Gradient Boosting with Lasso regularization","key":""},"isEstimate":false,"links":[{"rel":"self","href":"https://api.uat.nexosisdev.com/v1/sessions/01628c61-1d53-4142-aedf-21911e725824"}]},{"columns":{"Age":{"dataType":"numeric","role":"feature","imputation":"mean","aggregation":"mean"},"Sex":{"dataType":"string","role":"feature","imputation":"mode","aggregation":"mode"},"Fare":{"dataType":"numeric","role":"feature","imputation":"mean","aggregation":"mean"},"Parch":{"dataType":"string","role":"feature","imputation":"mode","aggregation":"mean"},"SibSp":{"dataType":"numeric","role":"feature","imputation":"mean","aggregation":"mean"},"Pclass":{"dataType":"string","role":"feature","imputation":"mode","aggregation":"mean"},"Embarked":{"dataType":"string","role":"feature","imputation":"mode","aggregation":"mode"},"Survived":{"dataType":"string","role":"target","imputation":"mode","aggregation":"mode"}},"sessionId":"01626e34-6c3d-4ef1-a44f-8884e565b39c","type":"model","status":"completed","predictionDomain":"classification","supportsFeatureImportance":true,"availablePredictionIntervals":[],"modelId":"beb7e64a-5f66-4463-9df3-007f49ad3539","requestedDate":"2018-03-28T20:02:32.079447+00:00","statusHistory":[{"date":"2018-03-28T20:02:32.079447+00:00","status":"requested"},{"date":"2018-03-28T20:02:32.5065039+00:00","status":"started"},{"date":"2018-03-28T20:29:05.7533527+00:00","status":"completed"}],"extraParameters":{"balance":true},"messages":[{"severity":"warning","message":"You
        specified aggregation ''mean'' for column ''Parch'', which may have unintended
        consequences since the column contains string values"},{"severity":"warning","message":"You
        specified aggregation ''mean'' for column ''Pclass'', which may have unintended
        consequences since the column contains string values"},{"severity":"informational","message":"1781
        observations were found in the dataset."}],"name":"Classification on Titanic","dataSourceName":"Titanic","dataSetName":"Titanic","targetColumn":"Survived","algorithm":{"name":"XGBoost
        L1","description":"eXtreme Gradient Boosting with Lasso regularization","key":""},"isEstimate":false,"links":[{"rel":"self","href":"https://api.uat.nexosisdev.com/v1/sessions/01626e34-6c3d-4ef1-a44f-8884e565b39c"}]}],"pageNumber":0,"totalPages":9,"pageSize":5,"totalCount":45,"links":[{"rel":"first","href":"https://api.uat.nexosisdev.com/v1/sessions?page=0&pageSize=5&page=0"},{"rel":"next","href":"https://api.uat.nexosisdev.com/v1/sessions?page=0&pageSize=5&page=1"},{"rel":"last","href":"https://api.uat.nexosisdev.com/v1/sessions?page=0&pageSize=5&page=8"},{"rel":"self","href":"https://api.uat.nexosisdev.com/v1/sessions?page=0&pageSize=5"}]}'
    http_version: 
  recorded_at: Fri, 06 Apr 2018 14:02:20 GMT
- request:
    method: get
    uri: https://api.uat.nexosisdev.com/v1/sessions/016291d3-9b5c-4bbe-905a-014e6d69c680/contest/champion
    body:
      encoding: US-ASCII
      string: ''
    headers:
      Api-Key:
      - api-key
      Content-Type:
      - application/json
      User-Agent:
      - Nexosis-Ruby-API-Client/2.1
  response:
    status:
      code: 200
      message: OK
    headers:
      Transfer-Encoding:
      - chunked
      Content-Type:
      - application/json; charset=utf-8
      Nexosis-Account-Datasetcount-Allotted:
      - '10000'
      Nexosis-Account-Datasetcount-Current:
      - '41'
      Nexosis-Account-Predictioncount-Allotted:
      - '10000000'
      Nexosis-Account-Predictioncount-Current:
      - '14'
      Nexosis-Account-Sessioncount-Allotted:
      - '100000'
      Nexosis-Account-Sessioncount-Current:
      - '11'
      Nexosis-Account-Balance:
      - 0.00 USD
      Nexosis-Request-Cost:
      - 0.00 USD
      Date:
      - Fri, 06 Apr 2018 14:02:20 GMT
    body:
      encoding: UTF-8
      string: '{"data":[{"Survived":"0","Age":"40","Sex":"male","Fare":"27.7208","Parch":"0","SibSp":"0","Pclass":"1","Embarked":"C","Survived:actual":"0"},{"Survived":"1","Age":"27","Sex":"female","Fare":"11.1333","Parch":"2","SibSp":"0","Pclass":"3","Embarked":"S","Survived:actual":"1"},{"Survived":"0","Age":"","Sex":"male","Fare":"7.8958","Parch":"0","SibSp":"0","Pclass":"3","Embarked":"S","Survived:actual":"0"},{"Survived":"0","Age":"2","Sex":"male","Fare":"29.125","Parch":"1","SibSp":"4","Pclass":"3","Embarked":"Q","Survived:actual":"0"},{"Survived":"1","Age":"","Sex":"male","Fare":"35.5","Parch":"0","SibSp":"0","Pclass":"1","Embarked":"S","Survived:actual":"1"},{"Survived":"0","Age":"","Sex":"male","Fare":"21.6792","Parch":"0","SibSp":"2","Pclass":"3","Embarked":"C","Survived:actual":"0"},{"Survived":"1","Age":"21","Sex":"female","Fare":"10.5","Parch":"0","SibSp":"0","Pclass":"2","Embarked":"S","Survived:actual":"1"},{"Survived":"1","Age":"29","Sex":"female","Fare":"26","Parch":"0","SibSp":"1","Pclass":"2","Embarked":"S","Survived:actual":"1"},{"Survived":"1","Age":"28","Sex":"male","Fare":"82.1708","Parch":"0","SibSp":"1","Pclass":"1","Embarked":"C","Survived:actual":"0"},{"Survived":"0","Age":"21","Sex":"male","Fare":"7.8","Parch":"0","SibSp":"0","Pclass":"3","Embarked":"S","Survived:actual":"0"},{"Survived":"0","Age":"66","Sex":"male","Fare":"10.5","Parch":"0","SibSp":"0","Pclass":"2","Embarked":"S","Survived:actual":"0"},{"Survived":"1","Age":"23","Sex":"male","Fare":"63.3583","Parch":"1","SibSp":"0","Pclass":"1","Embarked":"C","Survived:actual":"1"},{"Survived":"0","Age":"25","Sex":"male","Fare":"7.65","Parch":"0","SibSp":"0","Pclass":"3","Embarked":"S","Survived:actual":"0"},{"Survived":"1","Age":"33","Sex":"female","Fare":"15.85","Parch":"0","SibSp":"3","Pclass":"3","Embarked":"S","Survived:actual":"1"},{"Survived":"0","Age":"46","Sex":"male","Fare":"61.175","Parch":"0","SibSp":"1","Pclass":"1","Embarked":"S","Survived:actual":"0"},{"Survived":"0","Age":"29","Sex":"male","Fare":"9.5","Parch":"0","SibSp":"0","Pclass":"3","Embarked":"S","Survived:actual":"1"},{"Survived":"0","Age":"26","Sex":"male","Fare":"8.6625","Parch":"0","SibSp":"2","Pclass":"3","Embarked":"S","Survived:actual":"0"},{"Survived":"1","Age":"32","Sex":"male","Fare":"56.4958","Parch":"0","SibSp":"0","Pclass":"3","Embarked":"S","Survived:actual":"1"},{"Survived":"0","Age":"21","Sex":"male","Fare":"77.2875","Parch":"1","SibSp":"0","Pclass":"1","Embarked":"S","Survived:actual":"0"},{"Survived":"0","Age":"26","Sex":"male","Fare":"14.4542","Parch":"0","SibSp":"1","Pclass":"3","Embarked":"C","Survived:actual":"0"},{"Survived":"0","Age":"37","Sex":"male","Fare":"53.1","Parch":"0","SibSp":"1","Pclass":"1","Embarked":"S","Survived:actual":"0"},{"Survived":"0","Age":"47","Sex":"female","Fare":"14.5","Parch":"0","SibSp":"1","Pclass":"3","Embarked":"S","Survived:actual":"0"},{"Survived":"0","Age":"","Sex":"male","Fare":"8.05","Parch":"0","SibSp":"0","Pclass":"3","Embarked":"S","Survived:actual":"0"},{"Survived":"0","Age":"47","Sex":"male","Fare":"52","Parch":"0","SibSp":"0","Pclass":"1","Embarked":"S","Survived:actual":"0"},{"Survived":"0","Age":"28","Sex":"male","Fare":"7.8958","Parch":"0","SibSp":"0","Pclass":"3","Embarked":"S","Survived:actual":"0"},{"Survived":"0","Age":"","Sex":"male","Fare":"69.55","Parch":"2","SibSp":"8","Pclass":"3","Embarked":"S","Survived:actual":"0"},{"Survived":"1","Age":"1","Sex":"female","Fare":"11.1333","Parch":"1","SibSp":"1","Pclass":"3","Embarked":"S","Survived:actual":"1"},{"Survived":"1","Age":"24","Sex":"female","Fare":"15.85","Parch":"0","SibSp":"1","Pclass":"3","Embarked":"S","Survived:actual":"1"},{"Survived":"0","Age":"45","Sex":"female","Fare":"27.9","Parch":"4","SibSp":"1","Pclass":"3","Embarked":"S","Survived:actual":"0"},{"Survived":"0","Age":"18","Sex":"male","Fare":"7.8542","Parch":"1","SibSp":"1","Pclass":"3","Embarked":"S","Survived:actual":"0"},{"Survived":"0","Age":"9","Sex":"female","Fare":"34.375","Parch":"2","SibSp":"2","Pclass":"3","Embarked":"S","Survived:actual":"0"},{"Survived":"0","Age":"42","Sex":"male","Fare":"13","Parch":"0","SibSp":"0","Pclass":"2","Embarked":"S","Survived:actual":"0"},{"Survived":"0","Age":"45","Sex":"male","Fare":"26.55","Parch":"0","SibSp":"0","Pclass":"1","Embarked":"S","Survived:actual":"1"},{"Survived":"0","Age":"","Sex":"male","Fare":"69.55","Parch":"2","SibSp":"8","Pclass":"3","Embarked":"S","Survived:actual":"0"},{"Survived":"0","Age":"","Sex":"male","Fare":"15.05","Parch":"0","SibSp":"0","Pclass":"2","Embarked":"C","Survived:actual":"0"},{"Survived":"1","Age":"2","Sex":"female","Fare":"10.4625","Parch":"1","SibSp":"0","Pclass":"3","Embarked":"S","Survived:actual":"0"},{"Survived":"0","Age":"24","Sex":"male","Fare":"7.05","Parch":"0","SibSp":"0","Pclass":"3","Embarked":"S","Survived:actual":"0"},{"Survived":"0","Age":"19","Sex":"male","Fare":"10.5","Parch":"0","SibSp":"0","Pclass":"2","Embarked":"S","Survived:actual":"1"},{"Survived":"0","Age":"27","Sex":"male","Fare":"13","Parch":"0","SibSp":"0","Pclass":"2","Embarked":"S","Survived:actual":"0"},{"Survived":"0","Age":"33","Sex":"male","Fare":"12.275","Parch":"0","SibSp":"0","Pclass":"2","Embarked":"S","Survived:actual":"0"},{"Survived":"1","Age":"24","Sex":"female","Fare":"14.5","Parch":"2","SibSp":"0","Pclass":"2","Embarked":"S","Survived:actual":"1"},{"Survived":"0","Age":"","Sex":"female","Fare":"25.4667","Parch":"1","SibSp":"3","Pclass":"3","Embarked":"S","Survived:actual":"0"},{"Survived":"0","Age":"30","Sex":"male","Fare":"7.225","Parch":"0","SibSp":"0","Pclass":"3","Embarked":"C","Survived:actual":"0"},{"Survived":"1","Age":"38","Sex":"male","Fare":"90","Parch":"0","SibSp":"1","Pclass":"1","Embarked":"S","Survived:actual":"1"},{"Survived":"0","Age":"22","Sex":"male","Fare":"9.35","Parch":"0","SibSp":"0","Pclass":"3","Embarked":"S","Survived:actual":"0"},{"Survived":"0","Age":"36","Sex":"male","Fare":"10.5","Parch":"0","SibSp":"0","Pclass":"2","Embarked":"S","Survived:actual":"0"},{"Survived":"0","Age":"16","Sex":"male","Fare":"39.6875","Parch":"1","SibSp":"4","Pclass":"3","Embarked":"S","Survived:actual":"0"},{"Survived":"0","Age":"","Sex":"male","Fare":"0","Parch":"0","SibSp":"0","Pclass":"2","Embarked":"S","Survived:actual":"0"},{"Survived":"1","Age":"50","Sex":"female","Fare":"26","Parch":"1","SibSp":"0","Pclass":"2","Embarked":"S","Survived:actual":"1"},{"Survived":"0","Age":"65","Sex":"male","Fare":"7.75","Parch":"0","SibSp":"0","Pclass":"3","Embarked":"Q","Survived:actual":"0"}],"pageNumber":0,"totalPages":8,"pageSize":50,"totalCount":356,"id":"016291f8-8bd6-4f02-b659-a2fea32e2ad3","algorithm":{"name":"XGBoost
        L1","description":"eXtreme Gradient Boosting with Lasso regularization","key":""},"dataSourceProperties":["Imputed","Scaled"],"metrics":{"macroAverageF1Score":0.92509363295880154,"rocAreaUnderCurve":0.964820184648202,"accuracy":0.9297752808988764,"macroAveragePrecision":0.92998638529611988,"macroAverageRecall":0.92105789421057893,"matthewsCorrelationCoefficient":0.85099744284457834},"algorithmFeatureImportance":{"Age":{"value":0.91783216783216781},"Fare":{"value":1.0},"SibSp":{"value":0.099650349650349648},"Parch:0":{"value":0.044871794871794872},"Parch:1":{"value":0.028554778554778556},"Parch:2":{"value":0.026223776223776224},"Parch:3":{"value":0.0},"Parch:4":{"value":0.0},"Parch:5":{"value":0.002913752913752914},"Parch:6":{"value":0.0},"Pclass:1":{"value":0.02505827505827506},"Pclass:2":{"value":0.017482517482517484},"Pclass:3":{"value":0.050699300699300696},"Sex:male":{"value":0.045454545454545456},"Embarked:c":{"value":0.054778554778554776},"Embarked:q":{"value":0.011655011655011656},"Embarked:s":{"value":0.042540792540792544},"Sex:female":{"value":0.0}},"links":[{"rel":"first","href":"https://api.uat.nexosisdev.com/v1/sessions/016291d3-9b5c-4bbe-905a-014e6d69c680/contest/champion?page=0"},{"rel":"next","href":"https://api.uat.nexosisdev.com/v1/sessions/016291d3-9b5c-4bbe-905a-014e6d69c680/contest/champion?page=1"},{"rel":"last","href":"https://api.uat.nexosisdev.com/v1/sessions/016291d3-9b5c-4bbe-905a-014e6d69c680/contest/champion?page=7"},{"rel":"self","href":"https://api.uat.nexosisdev.com/v1/sessions/016291d3-9b5c-4bbe-905a-014e6d69c680/contest/champion"}]}'
    http_version: 
  recorded_at: Fri, 06 Apr 2018 14:02:20 GMT
recorded_with: VCR 3.0.3
